//Maya ASCII 2012 scene
//Name: clapperShape.ma
//Last modified: Tue, Feb 28, 2012 06:53:24 PM
//Codeset: UTF-8
requires maya "2012";
requires "jClapper" "jtools-2012.7.42";
requires "stereoCamera" "10.0";
currentUnit -l centimeter -a degree -t film;
fileInfo "application" "maya";
fileInfo "product" "Maya 2012";
fileInfo "version" "2012 x64";
fileInfo "cutIdentifier" "201103110020-796618";
fileInfo "osv" "Mac OS X 10.7.3";
createNode transform -n "clapper1";
createNode clapperShape -s -n "defaultClapper" -p "clapper1";
	addAttr -ci true -sn "docMeta_Author" -ln "docMeta_Author" -dt "string";
	addAttr -ci true -sn "docMeta_Email" -ln "docMeta_Email" -dt "string";
	addAttr -ci true -sn "docMeta_Keywords" -ln "docMeta_Keywords" -dt "string";
	addAttr -ci true -sn "docMeta_TestScene" -ln "docMeta_TestScene" -dt "string";
	addAttr -ci true -sn "docMeta_Description" -ln "docMeta_Description" -dt "string";
	addAttr -ci true -sn "docBlock_Synopsis" -ln "docBlock_Synopsis" -dt "string";
	addAttr -ci true -sn "docAttr_BeforeSaveMel" -ln "docAttr_BeforeSaveMel" -dt "string";
	addAttr -ci true -sn "docAttr_AfterSaveMel" -ln "docAttr_AfterSaveMel" -dt "string";
	addAttr -ci true -sn "docAttr_BeforePlayblastMel" -ln "docAttr_BeforePlayblastMel" 
		-dt "string";
	addAttr -ci true -sn "docAttr_AfterPlayblastMel" -ln "docAttr_AfterPlayblastMel" 
		-dt "string";
	addAttr -ci true -sn "docAttr_BeforeCacheMel" -ln "docAttr_BeforeCacheMel" -dt "string";
	addAttr -ci true -sn "docAttr_AfterCacheMel" -ln "docAttr_AfterCacheMel" -dt "string";
	addAttr -ci true -sn "docAttr_PlayblastResolution" -ln "docAttr_PlayblastResolution" 
		-dt "string";
	addAttr -ci true -sn "docAttr_PlayblastRange" -ln "docAttr_PlayblastRange" -dt "string";
	addAttr -ci true -sn "docAttr_PlayblastDirectory" -ln "docAttr_PlayblastDirectory" 
		-dt "string";
	addAttr -ci true -sn "docAttr_CacheRange" -ln "docAttr_CacheRange" -dt "string";
	addAttr -ci true -sn "docAttr_SaveAfterPlayblast" -ln "docAttr_SaveAfterPlayblast" 
		-dt "string";
	addAttr -ci true -sn "docAttr_PlayblastOffscreen" -ln "docAttr_PlayblastOffscreen" 
		-dt "string";
	addAttr -ci true -sn "docAttr_LaunchViewer" -ln "docAttr_LaunchViewer" -dt "string";
	addAttr -ci true -sn "docAttr_CacheBeforePlayblast" -ln "docAttr_CacheBeforePlayblast" 
		-dt "string";
	addAttr -ci true -sn "docAttr_SaveAfterCache" -ln "docAttr_SaveAfterCache" -dt "string";
	addAttr -ci true -sn "docAttr_CurrentTime" -ln "docAttr_CurrentTime" -dt "string";
	addAttr -ci true -sn "docAttr_TimeOffset" -ln "docAttr_TimeOffset" -dt "string";
	addAttr -ci true -sn "docAttr_XMargin" -ln "docAttr_XMargin" -dt "string";
	addAttr -ci true -sn "docAttr_YMargin" -ln "docAttr_YMargin" -dt "string";
	addAttr -ci true -sn "docAttr_WordSpacing" -ln "docAttr_WordSpacing" -dt "string";
	addAttr -ci true -sn "docAttr_Outline" -ln "docAttr_Outline" -dt "string";
	addAttr -ci true -sn "docAttr_Position" -ln "docAttr_Position" -dt "string";
	addAttr -ci true -sn "docAttr_BurnInFont" -ln "docAttr_BurnInFont" -dt "string";
	addAttr -ci true -sn "docAttr_SlateFont" -ln "docAttr_SlateFont" -dt "string";
	addAttr -ci true -sn "docAttr_FontColor" -ln "docAttr_FontColor" -dt "string";
	addAttr -ci true -sn "docAttr_OutlineColor" -ln "docAttr_OutlineColor" -dt "string";
	addAttr -ci true -sn "docAttr_DoSlate" -ln "docAttr_DoSlate" -dt "string";
	addAttr -ci true -sn "docAttr_SlateCallback" -ln "docAttr_SlateCallback" -dt "string";
	addAttr -ci true -sn "docAttr_SlateFontColor" -ln "docAttr_SlateFontColor" -dt "string";
	addAttr -ci true -sn "docAttr_SlateBackgroundColor" -ln "docAttr_SlateBackgroundColor" 
		-dt "string";
	addAttr -ci true -sn "docAttr_Date" -ln "docAttr_Date" -dt "string";
	addAttr -ci true -sn "docAttr_User" -ln "docAttr_User" -dt "string";
	addAttr -ci true -sn "docAttr_Container" -ln "docAttr_Container" -dt "string";
	addAttr -ci true -sn "docAttr_Task" -ln "docAttr_Task" -dt "string";
	addAttr -ci true -sn "docAttr_Version" -ln "docAttr_Version" -dt "string";
	addAttr -ci true -sn "docAttr_Other" -ln "docAttr_Other" -dt "string";
	addAttr -ci true -sn "docAttr_FilenameTemplate" -ln "docAttr_FilenameTemplate" -dt "string";
	addAttr -ci true -sn "docAttr_Filename" -ln "docAttr_Filename" -dt "string";
	addAttr -ci true -sn "docAttr_DateFormat" -ln "docAttr_DateFormat" -dt "string";
	addAttr -ci true -sn "docAttr_OtherSource" -ln "docAttr_OtherSource" -dt "string";
	addAttr -ci true -sn "docAttr_CustomCommand" -ln "docAttr_CustomCommand" -dt "string";
	addAttr -ci true -sn "docAttr_Revision" -ln "docAttr_Revision" -dt "string";
	addAttr -ci true -sn "docAttr_CustomInfo" -ln "docAttr_CustomInfo" -dt "string";
	addAttr -ci true -sn "docAttr_CustomInfoYoffset" -ln "docAttr_CustomInfoYoffset" 
		-dt "string";
	addAttr -ci true -sn "docAttr_WedgieChannels" -ln "docAttr_WedgieChannels" -dt "string";
	addAttr -ci true -sn "docAttr_WedgiePlug" -ln "docAttr_WedgiePlug" -dt "string";
	addAttr -ci true -sn "docAttr_WedgieValues" -ln "docAttr_WedgieValues" -dt "string";
	addAttr -ci true -sn "docAttr_WedgieFirstRevision" -ln "docAttr_WedgieFirstRevision" 
		-dt "string";
	addAttr -ci true -sn "docAttr_WedgieNumRevisions" -ln "docAttr_WedgieNumRevisions" 
		-dt "string";
	addAttr -ci true -sn "docAttr_WedgieRevisionPadding" -ln "docAttr_WedgieRevisionPadding" 
		-dt "string";
	addAttr -ci true -sn "docAttr_WedgieMelSnippetId" -ln "docAttr_WedgieMelSnippetId" 
		-dt "string";
	addAttr -ci true -sn "docAttr_WedgieMelSnippet" -ln "docAttr_WedgieMelSnippet" -dt "string";
	addAttr -ci true -sn "docAttr_WedgieBaseSceneFormat" -ln "docAttr_WedgieBaseSceneFormat" 
		-dt "string";
	addAttr -ci true -sn "docAttr_WedgieSessionUseBaseScene" -ln "docAttr_WedgieSessionUseBaseScene" 
		-dt "string";
	addAttr -ci true -sn "docAttr_WedgieRevisionSubset" -ln "docAttr_WedgieRevisionSubset" 
		-dt "string";
	setAttr -k off ".v";
	setAttr ".dat" -type "string" "01 February 2012";
	setAttr ".usr" -type "string" "julianmann";
	setAttr ".ctr" -type "string" "OP_063_8900";
	setAttr ".tas" -type "string" "look_dev";
	setAttr ".ver" -type "string" "0023";
	setAttr ".ftp" -type "string" "<container>-<task>-<version>";
	setAttr ".fn" -type "string" "OP_063_8900-look_dev-0023";
	setAttr ".dfm" 2;
	setAttr ".ncr" yes;
	setAttr ".nsr" yes;
	setAttr ".plm" yes;
	setAttr ".sds" yes;
	setAttr ".loc" yes;
	setAttr ".prs" -type "short2" 1280 720 ;
	setAttr ".prn" -type "short2" 0 24 ;
	setAttr ".pbd" -type "string" "playblasts";
	setAttr ".sap" yes;
	setAttr ".lvw" yes;
	setAttr ".xmg" 10;
	setAttr ".ymg" 10;
	setAttr ".wsp" 15;
	setAttr ".bft" 0;
	setAttr ".sft" 1;
	setAttr ".fc" -type "float3" 1 1 1 ;
	setAttr ".ouc" -type "float3" 0.15000001 0.1 0.5 ;
	setAttr ".dsl" yes;
	setAttr ".scb" -type "string" "clapper.slateCB";
	setAttr ".sfc" -type "float3" 1 0.35746229 0 ;
	setAttr ".sbc" -type "float3" 0.098039217 0.098039217 0.098039217 ;
	setAttr ".ccm[0]" -type "string" "/Users/julianmann/maya/2012-x64/scripts/foobar.mel";
	setAttr ".docMeta_Author" -type "string" "julian mann";
	setAttr ".docMeta_Email" -type "string" "julian.mann@gmail.com";
	setAttr ".docMeta_Keywords" -type "string" "";
	setAttr ".docMeta_TestScene" -type "string" "";
	setAttr ".docMeta_Description" -type "string" "A slate and heads-up display with workflow enhancements";
	setAttr ".docBlock_Synopsis" -type "string" (
		"Clapper is a node designed to streamline workflow for animators. At the heart of the system are a set of metadata attributes that hold information about the scene. These include _date, user, task, version_ and any number of custom info attributes. The custom attributes can be configured with a callback script to present their data. For example you may want an attribute to show the interoccular distance of the current stereo camera. You simply need to write a script to return this value, and enter its name in the text field.  Most features features of the node use these info attributes in some way. They are described briefly below. See the tutorial pages for more in depth information.\n\n* *Slate:* The metadata appears on a slate at the first frame. You can configure the slate display with a callback script that provides the information to be displayed. \n\n\n* *Heads up display:* The metadata appears in the heads-up display of the current view. In addition, the current frame and timecode are displayed.\n\n* *File Naming Convention:* Filenames can be generated from a filename template. The template can include metadata tags which are then substituted with the actual values to produce a filename.\n"
		+ "* *Quick Save:* Buttons are provided to quickly save the scene with a filename generated as above. There is also a Save incremental button.\n\n* *Playblast:* Configure playblast settings for this node so that when you hit the playblast button those settings are used. You can configure all panel display settings, such as shaded mode, xray, fog etc. These settings will be put into effect for the duration of the playblast and returned to their previous state afterwards. As a convenience you can set the scene to always be saved, with a matching name, after a playblast.\n\n* *Wedgie:* Create wedges by configuring attributes for a number of processes in a spreadsheet, then send the processes to the renderfarm to be computed. \n\n\n* *Custom Buttons:* Quickly create buttons to run user defined scripts. These scripts will be passed the name of the clapper node so that you can access metadata and other attributes stored on the node.\n");
	setAttr ".docAttr_BeforeSaveMel" -type "string" "Callback to run before the scene is saved. If the command string contains \"%N\" it will be replaced by the name of the clapperShape node.";
	setAttr ".docAttr_AfterSaveMel" -type "string" "Callback to run after the scene is saved. If the command string contains \"%N\" it will be replaced by the name of the clapperShape node.";
	setAttr ".docAttr_BeforePlayblastMel" -type "string" "Callback to run before playblast. If the command string contains \"%N\" it will be replaced by the name of the clapperShape node.";
	setAttr ".docAttr_AfterPlayblastMel" -type "string" "Callback to run after playblast. If the command string contains \"%N\" it will be replaced by the name of the clapperShape node.";
	setAttr ".docAttr_BeforeCacheMel" -type "string" "Callback to run before caching particles. If the command string contains \"%N\" it will be replaced by the name of the clapperShape node.Callback to run before caching particles. If the command string contains \"%N\" it will be replaced by the name of the clapperShape node.";
	setAttr ".docAttr_AfterCacheMel" -type "string" "Callback to run after caching particles. If the command string contains \"%N\" it will be replaced by the name of the clapperShape node.";
	setAttr ".docAttr_PlayblastResolution" -type "string" "Resolution of the playblast";
	setAttr ".docAttr_PlayblastRange" -type "string" "Range of frames to playblast.";
	setAttr ".docAttr_PlayblastDirectory" -type "string" "Set a direvctory to save playblasts in. If the path starts with a \"/\" it will be considered an absolute path. Otherwise it will be relative to the current project. If no value is set, playblasts will be saved in the root of the current project. Not the images folder.";
	setAttr ".docAttr_CacheRange" -type "string" "Range of frames to cache particles";
	setAttr ".docAttr_SaveAfterPlayblast" -type "string" "Save the scene after every playblast with the same filename.";
	setAttr ".docAttr_PlayblastOffscreen" -type "string" "Do the playblast off screen.";
	setAttr ".docAttr_LaunchViewer" -type "string" "Launch quicktime or mplayer when playblast is complete.";
	setAttr ".docAttr_CacheBeforePlayblast" -type "string" "cache selected particles using the current filename before playblasting";
	setAttr ".docAttr_SaveAfterCache" -type "string" "Save the scene after caching dynamics.";
	setAttr ".docAttr_CurrentTime" -type "string" "Time should be connected here. It is not advisable to offset this. Please see timeOffset.";
	setAttr ".docAttr_TimeOffset" -type "string" "The frame counter and timecode will be 0 at the frame specified by timeOffset. Also, the slate will be displayed at this frame if doSlate is on.";
	setAttr ".docAttr_XMargin" -type "string" "Offset the left position of the heads-up display.";
	setAttr ".docAttr_YMargin" -type "string" "Offset the height of the heads-up display.";
	setAttr ".docAttr_WordSpacing" -type "string" "Spacing between words in the heads-up display.";
	setAttr ".docAttr_Outline" -type "string" "Decide whether to draw an outline around the heads-up display text.";
	setAttr ".docAttr_Position" -type "string" "Decide whether to put the heads-up display at the top or bottom of the viewport.";
	setAttr ".docAttr_BurnInFont" -type "string" "Font used for the heads-up display.";
	setAttr ".docAttr_SlateFont" -type "string" "Font used for the slate.";
	setAttr ".docAttr_FontColor" -type "string" "Color of the heads-up display text.";
	setAttr ".docAttr_OutlineColor" -type "string" "Color of the outline for the heads-up display text. As the heads-up display is drawn over the viewport, we can never know what color will be underneath the text. An outline can be used to ensure the text is always readable over any background.";
	setAttr ".docAttr_DoSlate" -type "string" "If doSlate is on, the slate appears at the frame specified by the timeOffset attribute.";
	setAttr ".docAttr_SlateCallback" -type "string" "A mel procedure responsible for providing information to draw on the slate. The function should accept one argument, the clapper node, and return a string array representing label/value pairs to be displayed. See tutorial for an example.";
	setAttr ".docAttr_SlateFontColor" -type "string" "Font color for the slate.";
	setAttr ".docAttr_SlateBackgroundColor" -type "string" "Background color for the slate.";
	setAttr ".docAttr_Date" -type "string" "This field holds the date. If the associated drop-down menu is set to custom, the date can be specified manually, otherwise it is forced to the current date in the specified format every time its value is needed. This includes updates to the filename template and save, playblast or cache operations.";
	setAttr ".docAttr_User" -type "string" "Intended for the name of the artist. There is a drop-down menu with options to use the full name, user name, or initials.";
	setAttr ".docAttr_Container" -type "string" "Intended for the name of the container the current task belongs to. This may be a shot or character etc. It is usually represented by some directory, and for this reason there is a drop-down menu command to set it to the directory enclosing the current project.";
	setAttr ".docAttr_Task" -type "string" "Intended for the name of the task the current scene file represents.";
	setAttr ".docAttr_Version" -type "string" "A version string. Convenience functions are available in the attribute editor to increment the version. Although any string can appear here, the increment functions only work properly with numbers.";
	setAttr ".docAttr_Other" -type "string" "A miscellaneous string that will be part of the heads-up display.";
	setAttr ".docAttr_FilenameTemplate" -type "string" "The filename is generated from a template, specified here, that can include any of the info fields enclosed in angle brackets. It can also include plug names for custom info fields. For example, if the plug customInfo[2] contains `calculateFocalLength` the template <user>_<task>_<customInfo[2]>_<version> will generate the filename: julian_matchmove_35mm_003";
	setAttr ".docAttr_Filename" -type "string" "The current filename as generated by the filename template.";
	setAttr ".docAttr_DateFormat" -type "string" "Specifies the format for the *date* info attribute. Options are currently: custom, short, long, euro, usa.";
	setAttr ".docAttr_OtherSource" -type "string" "Specifies where to get the data for the *other* info attribute. Options are currently: \ncustom - Enter any value you like.\nfocalLength - Get the focalLength value from the current camera and ad \"mm\".\ncameraName - Use the name of the current camera.\nResolution - Use the resoluton of the playblast as specified in the playblast section of the clapperShape attribute editor.\nTo set this value, use the drop-down menu on the \"Other\" info attribute's label in the attribute editor.";
	setAttr ".docAttr_CustomCommand" -type "string" "Set up your own button in the clapper UI to execute a mel callback. The callback proc must have the same name as the file basename and take a single string argument which is the name of the clapper node. In this way you can call any clapper functions from within your script. For example, you can get the resolved filename, update the headsup display, or initiate a playblast. \nCustom command is a multi attribute, which means you can set up any number of scripts to execute.";
	setAttr ".docAttr_Revision" -type "string" "A revision string. Convenience functions are available in the attribute editor to increment the revision. Although any string can appear here, the increment functions only work properly with numbers. When using wedgie, the revision here will be ignored and the wedgie UI will provide the revision number.";
	setAttr ".docAttr_CustomInfo" -type "string" "Specify custom strings to appear in the heads-up display. For each plug, if the string is surrounded by `backticks`, an attempt will be made to evaluate it as a MEL procedure. The procedure should accept a string argument abnd return a string. The argument will be the name of the clapper node, and the return value will be the string that appears in the heads-up display. The return value is also available in the filename template by specifying the name of the plug in angle brackets. See tutorial for examples.";
	setAttr ".docAttr_CustomInfoYoffset" -type "string" "Where to put the custom info in the heads-up display in relation to the static info attributes.";
	setAttr ".docAttr_WedgieChannels" -type "string" "Parent attribute for wedgie channel information. This attribute should not be set directly. It is accessed via the wedgie interface.";
	setAttr ".docAttr_WedgiePlug" -type "string" "the node.attribute connected to this plug is how wedgie knows which channels are registered.";
	setAttr ".docAttr_WedgieValues" -type "string" "An array of values that represent values to be used for all processes in the wedge for the channel connected to the sibling wedgiePlug.";
	setAttr ".docAttr_WedgieFirstRevision" -type "string" "The first revision number in the wedge.";
	setAttr ".docAttr_WedgieNumRevisions" -type "string" "The number of processes.";
	setAttr ".docAttr_WedgieRevisionPadding" -type "string" "Padding to use for generating the revision strings.";
	setAttr ".docAttr_WedgieMelSnippetId" -type "string" "The id of the current MEL snippet. The current snippet is the one that will be used in the wedge.";
	setAttr ".docAttr_WedgieMelSnippet" -type "string" "A multi-plug attribute to store MEL snippets. When making a wedge, a MEL procedure is generated for every revision. Each procedure contains setAttr commands for that revision, followed by the code in the current snippet.  See the tutorial for information on how snippets are turned into MEL procedures for the wedge.";
	setAttr ".docAttr_WedgieBaseSceneFormat" -type "string" "File format for the base scene: mayaAscii or mayaBinary.";
	setAttr ".docAttr_WedgieSessionUseBaseScene" -type "string" "When dispatching the wedge in the current maya session, it may not be neccessary to save and load the base scene before each process.";
	setAttr ".docAttr_WedgieRevisionSubset" -type "string" "Sometimes it can be useful to test the process by dispatching only a subset of all revisions, for example, you may want to dispatch the first and last revision only. In that case, if there are 10 revisions you would enter \"1,9\". The value is a 1 based column index and and as such does NOT represent the revision number. This values are represented as a compact string such as \"1,4,9:12,15\" The colon represents a range, in this example 9:12 expands to \"9,10,11,12\".";
select -ne :time1;
	setAttr -av -k on ".cch";
	setAttr -cb on ".ihi";
	setAttr -k on ".nds";
	setAttr -cb on ".bnm";
	setAttr -k on ".o" 1;
	setAttr ".unw" 1;
select -ne :renderPartition;
	setAttr -k on ".cch";
	setAttr -cb on ".ihi";
	setAttr -k on ".nds";
	setAttr -cb on ".bnm";
	setAttr -s 2 ".st";
	setAttr -cb on ".an";
	setAttr -cb on ".pt";
select -ne :initialShadingGroup;
	setAttr -k on ".cch";
	setAttr -cb on ".ihi";
	setAttr -av -k on ".nds";
	setAttr -cb on ".bnm";
	setAttr -k on ".mwc";
	setAttr -cb on ".an";
	setAttr -cb on ".il";
	setAttr -cb on ".vo";
	setAttr -cb on ".eo";
	setAttr -cb on ".fo";
	setAttr -cb on ".epo";
	setAttr ".ro" yes;
select -ne :initialParticleSE;
	setAttr -k on ".cch";
	setAttr -cb on ".ihi";
	setAttr -k on ".nds";
	setAttr -cb on ".bnm";
	setAttr -k on ".mwc";
	setAttr -cb on ".an";
	setAttr -cb on ".il";
	setAttr -cb on ".vo";
	setAttr -cb on ".eo";
	setAttr -cb on ".fo";
	setAttr -cb on ".epo";
	setAttr ".ro" yes;
select -ne :defaultShaderList1;
	setAttr -k on ".cch";
	setAttr -cb on ".ihi";
	setAttr -k on ".nds";
	setAttr -cb on ".bnm";
	setAttr -s 2 ".s";
select -ne :postProcessList1;
	setAttr -k on ".cch";
	setAttr -cb on ".ihi";
	setAttr -k on ".nds";
	setAttr -cb on ".bnm";
	setAttr -s 2 ".p";
select -ne :defaultRenderingList1;
select -ne :renderGlobalsList1;
	setAttr -k on ".cch";
	setAttr -cb on ".ihi";
	setAttr -k on ".nds";
	setAttr -cb on ".bnm";
select -ne :defaultLightSet;
	setAttr -k on ".cch";
	setAttr -k on ".ihi";
	setAttr -k on ".nds";
	setAttr -k on ".bnm";
	setAttr -k on ".mwc";
	setAttr -k on ".an";
	setAttr -k on ".il";
	setAttr -k on ".vo";
	setAttr -k on ".eo";
	setAttr -k on ".fo";
	setAttr -k on ".epo";
	setAttr -k on ".ro" yes;
select -ne :defaultObjectSet;
	setAttr ".ro" yes;
select -ne :hardwareRenderGlobals;
	setAttr -k on ".cch";
	setAttr -cb on ".ihi";
	setAttr -k on ".nds";
	setAttr -cb on ".bnm";
	setAttr ".ctrs" 256;
	setAttr ".btrs" 512;
	setAttr -k off -cb on ".ehql";
	setAttr -k off -cb on ".eams";
	setAttr -k off ".eeaa";
	setAttr -k off ".engm";
	setAttr -k off ".mes";
	setAttr -k off ".emb";
	setAttr -k off ".mbbf";
	setAttr -k off ".mbs";
	setAttr -k off ".trm";
	setAttr -k off -cb on ".tshc";
	setAttr -k off ".clmt";
	setAttr -k off -cb on ".tcov";
	setAttr -k off -cb on ".lith";
	setAttr -k off -cb on ".sobc";
	setAttr -k off -cb on ".cuth";
	setAttr -k off -cb on ".hgcd";
	setAttr -k off -cb on ".hgci";
	setAttr -k off -cb on ".mgcs";
	setAttr -k off ".twa";
	setAttr -k off ".twz";
	setAttr -k on ".hwcc";
	setAttr -k on ".hwdp";
	setAttr -k on ".hwql";
select -ne :defaultHardwareRenderGlobals;
	setAttr -k on ".cch";
	setAttr -cb on ".ihi";
	setAttr -k on ".nds";
	setAttr -cb on ".bnm";
	setAttr -k on ".rp";
	setAttr -k on ".cai";
	setAttr -k on ".coi";
	setAttr -cb on ".bc";
	setAttr -av -k on ".bcr";
	setAttr -av -k on ".bcg";
	setAttr -av -k on ".bcb";
	setAttr -k on ".ei";
	setAttr -k on ".ex";
	setAttr -av -k on ".es";
	setAttr -av -k on ".ef";
	setAttr -k on ".bf";
	setAttr -k on ".fii";
	setAttr -av -k on ".sf";
	setAttr -k on ".gr";
	setAttr -k on ".li";
	setAttr -k on ".ls";
	setAttr -k on ".mb";
	setAttr -k on ".ti";
	setAttr -k on ".txt";
	setAttr -k on ".mpr";
	setAttr -k on ".wzd";
	setAttr -k on ".fn" -type "string" "im";
	setAttr -k on ".if";
	setAttr -k on ".res" -type "string" "ntsc_4d 646 485 1.333";
	setAttr -k on ".as";
	setAttr -k on ".ds";
	setAttr -k on ".lm";
	setAttr -k on ".fir";
	setAttr -k on ".aap";
	setAttr -k on ".gh";
	setAttr -cb on ".sd";
connectAttr ":time1.o" ":defaultClapper.ct";
// End of clapperShape.ma
